{
  "art and entertainment": {
    "subCategories": {
      "books and literature": {
        "value": { "iab": [42] }
      },
      "celebrity fan and gossip": {
        "value": { "iab": [432], "mantis": ["pop_culture"] }
      },
      "comics and animation": {
        "value": { "iab": [46] }
      },
      "dance": {
        "value": { "iab": [203] }
      },
      "humor": {
        "value": { "iab": [440], "mantis": ["pop_culture"] }
      },
      "movies": {
        "value": { "iab": [324], "mantis": ["movies"] }
      },
      "movies and tv": {
        "value": { "iab": [324, 640], "mantis": ["movies", "tv"] }
      },
      "music": {
        "value": { "iab": [338], "mantis": ["music_audio"] }
      },
      "radio": {
        "value": { "iab": [338], "mantis": ["music_audio"] }
      },
      "shows and events": {
        "value": { "iab": [150] }
      },
      "theatre": {
        "value": { "iab": [177] }
      },
      "visual art and design": {
        "value": { "iab": [204] }
      }
    }
  },
  "automotive and vehicles": {
    "subCategories": {
      "auto parts": {
        "value": { "iab": [32] }
      },
      "auto repair": {
        "value": { "iab": [34] }
      },
      "bicycles and accessories": {
        "value": { "iab": [1] }
      },
      "boats and watercraft": {
        "value": { "iab": [1] }
      },
      "buying and selling cars": {
        "value": { "iab": [30] }
      },
      "campers and rvs": {
        "value": { "iab": [1] }
      },
      "cars": {
        "value": { "iab": [1] }
      },
      "certified pre-owned": {
        "value": { "iab": [18] }
      },
      "commercial vehicles": {
        "value": { "iab": [3] }
      },
      "electric vehicles": {
        "value": { "iab": [2] }
      },
      "minivan": {
        "value": { "iab": [13] }
      },
      "motor shows": {
        "value": { "iab": [36] }
      },
      "motorcycles": {
        "value": { "iab": [27] }
      },
      "off-road vehicles": {
        "value": { "iab": [14] }
      },
      "road-side assistance": {
        "value": { "iab": [28] }
      },
      "scooters and mopeds": {
        "value": { "iab": [29] }
      },
      "trucks and suvs": {
        "value": { "iab": [6] }
      },
      "vehicle brands": {
        "value": { "iab": [1] }
      },
      "vehicle rental": {
        "value": { "iab": [41] }
      }
    },
    "value": {
      "iab": [1]
    }
  },
  "business and industrial": {
    "subCategories": {
      "advertising and marketing": {
        "value": { "iab": [58] }
      },
      "aerospace and defense": {
        "value": { "iab": [122] }
      },
      "agriculture and forestry": {
        "value": { "iab": [102] }
      },
      "automation": {
        "value": { "iab": [90] }
      },
      "biomedical": {
        "value": { "iab": [119] }
      },
      "business news": {
        "value": { "iab": [52] }
      },
      "business operations": {
        "value": { "iab": [73] }
      },
      "business software": {
        "value": { "iab": [52] }
      },
      "chemicals industry": {
        "value": { "iab": [90] }
      },
      "company": {
        "value": { "iab": [52, 90] }
      },
      "construction": {
        "value": { "iab": [121] }
      },
      "energy": {
        "value": { "iab": [110] }
      },
      "fashion industry": {
        "value": { "iab": [113] }
      },
      "food industry": {
        "value": { "iab": [96] }
      },
      "green solutions": {
        "value": { "iab": [94] }
      },
      "hospitality industry": {
        "value": { "iab": [98] }
      },
      "iron and steel industry": {
        "value": { "iab": [90] }
      },
      "logistics": {
        "value": { "iab": [101] }
      },
      "manufacturing": {
        "value": { "iab": [104] }
      },
      "metals": {
        "value": { "iab": [107] }
      },
      "mining industry": {
        "value": { "iab": [90] }
      },
      "paper industry": {
        "value": { "iab": [90] }
      },
      "pharmaceutical industry": {
        "value": { "iab": [109] }
      },
      "publishing": {
        "value": { "iab": [111] }
      },
      "record company": {
        "value": { "iab": [90] }
      },
      "shipbuilding": {
        "value": { "iab": [90] }
      },
      "tanning": {
        "value": { "iab": [90] }
      },
      "textile industry": {
        "value": { "iab": [90] }
      },
      "war industry": {
        "value": { "iab": [90] }
      }
    },
    "value": {
      "iab": [52, 90]
    }
  },
  "careers": {
    "subCategories": {
      "career advice": {
        "value": { "iab": [125] }
      },
      "career planning": {
        "value": { "iab": [126] }
      },
      "job fairs": {
        "value": { "iab": [128] }
      },
      "job search": {
        "value": { "iab": [123] }
      },
      "nursing": {
        "value": { "iab": [123] }
      },
      "resume writing and advice": {
        "value": { "iab": [127] }
      },
      "telecommuting": {
        "value": { "iab": [123] }
      },
      "u.s. military": {
        "value": { "iab": [123] }
      }
    },
    "value": { "iab": [123] }
  },
  "education": {
    "subCategories": {
      "adult education": {
        "value": { "iab": [133] }
      },

      "alumni and reunions": {
        "value": { "iab": [132] }
      },
      "art history": {
        "value": { "iab": [132] }
      },
      "distance learning": {
        "value": { "iab": [148] }
      },
      "english as a second language": {
        "value": { "iab": [132] }
      },
      "grade school": {
        "value": { "iab": [132] }
      },
      "graduate school": {
        "value": { "iab": [149] }
      },
      "high school": {
        "value": { "iab": [135] }
      },
      "homeschooling": {
        "value": { "iab": [145] }
      },
      "homework and study tips": {
        "value": { "iab": [146] }
      },
      "language learning": {
        "value": { "iab": [147] }
      },
      "school": {
        "value": { "iab": [132] }
      },
      "special education": {
        "value": { "iab": [136] }
      },
      "studying business": {
        "value": { "iab": [132] }
      },
      "teaching and classroom resources": {
        "value": { "iab": [132] }
      }
    },
    "value": {
      "iab": [132]
    }
  },
  "family and parenting": {
    "subCategories": {
      "adoption": {
        "value": { "iab": [193] }
      },
      "babies and toddlers": {
        "value": { "iab": [196] }
      },
      "children": {
        "value": { "iab": [197] }
      },
      "eldercare": {
        "value": { "iab": [190] }
      },
      "motherhood": {
        "value": { "iab": [192] }
      },
      "parenting teens": {
        "value": { "iab": [198] }
      },
      "special needs kids": {
        "value": { "iab": [199] }
      }
    },
    "value": {
      "iab": [186, 192],
      "mantis": ["family_relations"]
    }
  },
  "finance": {
    "subCategories": {
      "accounting and auditing": {
        "value": { "iab": [54] }
      },
      "bank": {
        "value": { "iab": [392] }
      },
      "grants, scholarships and financial aid": {
        "value": { "iab": [394] }
      },
      "investing": {
        "value": { "iab": [410] }
      },
      "personal finance": {
        "value": { "iab": [391], "mantis": ["personal_finance"] }
      }
    },
    "value": {
      "iab": [391],
      "mantis": ["finance"]
    }
  },
  "food and drink": {
    "subCategories": {
      "barbecues and grilling": {
        "value": { "iab": [215] }
      },
      "beverages": {
        "value": { "iab": [211, 222] }
      },
      "cuisines": {
        "value": { "iab": [214] }
      },
      "desserts and baking": {
        "value": { "iab": [217] }
      },
      "dining out": {
        "value": { "iab": [218] }
      },
      "food": {
        "value": { "iab": [210] }
      },
      "food allergies": {
        "value": { "iab": [219] }
      },
      "food and grocery retailers": {
        "value": { "iab": [477] }
      },
      "gastronomy": {
        "value": { "iab": [210] }
      },
      "health and lowfat cooking": {
        "value": { "iab": [221] }
      },
      "healthy eating": {
        "value": { "iab": [221] }
      },
      "kosher food": {
        "value": { "iab": [210] }
      },
      "vegan": {
        "value": { "iab": [212] }
      },
      "vegetarian": {
        "value": { "iab": [213] }
      }
    },
    "value": {
      "iab": [210]
    }
  },
  "health and fitness": {
    "subCategories": {
      "addiction": {
        "value": { "iab": [286] }
      },
      "aging": {
        "value": { "iab": [286] }
      },
      "alternative medicine": {
        "value": { "iab": [233] }
      },
      "dental care": {
        "value": { "iab": [316] }
      },
      "disease": {
        "value": { "iab": [287] }
      },
      "disorders": {
        "value": { "iab": [290] }
      },
      "drugs": {
        "value": { "iab": [287] }
      },
      "exercise": {
        "value": { "iab": [225] }
      },
      "incest and abuse support": {
        "value": { "iab": [286] }
      },
      "men's health": {
        "value": { "iab": [228] }
      },
      "nutrition": {
        "value": { "iab": [229] }
      },
      "sexuality": {
        "value": { "iab": [307] }
      },
      "sports medicine": {
        "value": { "iab": [286] }
      },
      "therapy": {
        "value": { "iab": [236] }
      },
      "weight loss": {
        "value": { "iab": [231] }
      },
      "women's health": {
        "value": { "iab": [238] }
      }
    },
    "value": { "iab": [223, 286], "mantis": ["medical_health"] }
  },
  "hobbies and interests": {
    "subCategories": {
      "art and technology": {
        "value": { "iab": [239] }
      },
      "arts and crafts": {
        "value": { "iab": [248] }
      },
      "astrology": {
        "value": { "iab": [456] }
      },
      "birdwatching": {
        "value": { "iab": [259] }
      },
      "cigars": {
        "value": { "iab": [260] }
      },
      "collecting": {
        "value": { "iab": [261] }
      },
      "games": {
        "value": { "iab": [269] },
        "subCategories": {
          "video and computer games": {
            "value": { "iab": [680], "mantis": ["video_gaming"] }
          }
        }
      },
      "getting published": {
        "value": { "iab": [239] }
      },
      "guitar": {
        "value": { "iab": [239] }
      },
      "home recording": {
        "value": { "iab": [239] }
      },
      "inventors and patents": {
        "value": { "iab": [239] }
      },
      "magic and illusion": {
        "value": { "iab": [241] }
      },
      "needlework": {
        "value": { "iab": [253] }
      },
      "paranormal phenomena": {
        "value": { "iab": [244] }
      },
      "reading": {
        "value": { "iab": [239] }
      },
      "scrapbooking": {
        "value": { "iab": [256] }
      }
    },
    "value": {
      "iab": [239],
      "mantis": ["hobbies_interests"]
    }
  },
  "home and garden": {
    "subCategories": {
      "appliances": {
        "value": { "iab": [278] }
      },
      "bed and bath": {
        "value": { "iab": [274] }
      },
      "environmental safety": {
        "value": { "iab": [274] }
      },
      "gardening and landscaping": {
        "value": { "iab": [275] }
      },
      "home furnishings": {
        "value": { "iab": [274] }
      },
      "home improvement and repair": {
        "value": { "iab": [280] }
      },
      "interior decorating": {
        "value": { "iab": [283] }
      },
      "laundry": {
        "value": { "iab": [274] }
      },
      "luxury homes": {
        "value": { "iab": [274] }
      },
      "nursery and playroom": {
        "value": { "iab": [274] }
      },
      "pest control": {
        "value": { "iab": [274] }
      },
      "remodeling and construction": {
        "value": { "iab": [276] }
      }
    },
    "value": {
      "iab": [274]
    }
  },
  "law, govt and politics": {
    "subCategories": {
      "politics": {
        "value": { "iab": [386], "mantis": ["news_politics"] }
      }
    }
  },
  "news": {
    "subCategories": {
      "international news": {
        "value": { "iab": [382] }
      },
      "local news": {
        "value": { "iab": [384] }
      },
      "national news": {
        "value": { "iab": [385] }
      }
    },
    "value": {
      "iab": [379],
      "mantis": ["news_politics"]
    }
  },
  "pets": {
    "subCategories": {
      "animal welfare": {
        "value": { "iab": [422] }
      },
      "aquariums": {
        "value": { "iab": [426] }
      },
      "birds": {
        "value": { "iab": [423] }
      },
      "cats": {
        "value": { "iab": [424] }
      },
      "dogs": {
        "value": { "iab": [425] }
      },
      "large animals": {
        "value": { "iab": [427] }
      },
      "reptiles": {
        "value": { "iab": [429] }
      },
      "zoo": {
        "value": { "iab": [178] }
      }
    },
    "value": { "iab": [422] }
  },
  "real estate": {
    "subCategories": {
      "apartments": {
        "value": { "iab": [442] }
      },
      "buying and selling homes": {
        "value": { "iab": [451] }
      },
      "low income housing": {
        "value": { "iab": [441] }
      },
      "architects": {
        "value": { "iab": [441] }
      }
    },
    "value": {
      "iab": [441]
    }
  },
  "religion and spirituality": {
    "subCategories": {
      "alternative religions": {
        "value": { "iab": [453] }
      },
      "atheism and agnosticism": {
        "value": { "iab": [454] }
      },
      "buddhism": {
        "value": { "iab": [458] }
      },
      "christianity": {
        "value": { "iab": [459] }
      },
      "hinduism": {
        "value": { "iab": [460] }
      },
      "islam": {
        "value": { "iab": [461] }
      },
      "judaism": {
        "value": { "iab": [462] }
      }
    },
    "value": {
      "iab": [453]
    }
  },
  "science": {
    "subCategories": {
      "biology": {
        "value": { "iab": [465] }
      },
      "chemistry": {
        "value": { "iab": [466] }
      },
      "computer science": {
        "value": { "iab": [464] }
      },
      "ecology": {
        "value": { "iab": [464] }
      },
      "engineering": {
        "value": { "iab": [464] }
      },
      "geography": {
        "value": { "iab": [469] }
      },
      "geology": {
        "value": { "iab": [470] }
      },
      "mathematics": {
        "value": { "iab": [464] }
      },
      "medicine": {
        "value": { "iab": [464] }
      },
      "physics": {
        "value": { "iab": [471] }
      },
      "social science": {
        "value": { "iab": [464] }
      },
      "weather": {
        "value": { "iab": [464] }
      }
    },
    "value": {
      "iab": [464]
    }
  },
  "shopping": {
    "subCategories": {
      "auctions": {
        "value": { "iab": [473] }
      },
      "classifieds": {
        "value": { "iab": [473] }
      },
      "gifts": {
        "value": { "iab": [476] }
      },
      "resources": {
        "value": { "iab": [473] }
      },
      "retail": {
        "value": { "iab": [473] }
      },
      "toys": {
        "value": { "iab": [482] }
      }
    },
    "value": {
      "iab": [473]
    }
  },
  "society": {
    "subCategories": {
      "crime": {
        "value": { "iab": [380], "mantis": ["news_politics"] }
      },
      "dating": {
        "value": { "iab": [188], "mantis": ["family_relations"] }
      },
      "senior living": {
        "value": { "iab": [230] }
      },
      "unrest and war": {
        "value": { "watson": { "display": false } }
      }
    }
  },
  "sports": {
    "subCategories": {
      "archery": {
        "value": { "iab": [483] }
      },
      "auto racing": {
        "value": { "iab": [518] }
      },
      "badminton": {
        "value": { "iab": [534] }
      },
      "baseball": {
        "value": { "iab": [545] }
      },
      "basketball": {
        "value": { "iab": [547] }
      },
      "bicycling": {
        "value": { "iab": [492] }
      },
      "billiards": {
        "value": { "iab": [532] }
      },
      "boat racing": {
        "value": { "iab": [483] }
      },
      "bobsled": {
        "value": { "iab": [483] }
      },
      "bodybuilding": {
        "value": { "iab": [549] }
      },
      "bowling": {
        "value": { "iab": [550] }
      },
      "boxing": {
        "value": { "iab": [485] }
      },
      "canoeing and kayaking": {
        "value": { "iab": [499] }
      },
      "cheerleading": {
        "value": { "iab": [486] }
      },
      "climbing": {
        "value": { "iab": [501] }
      },
      "cricket": {
        "value": { "iab": [491] }
      },
      "curling": {
        "value": { "iab": [483] }
      },
      "diving": {
        "value": { "iab": [495] }
      },
      "dog sled": {
        "value": { "iab": [483] }
      },
      "fencing": {
        "value": { "iab": [483] }
      },
      "fishing": {
        "value": { "iab": [511] }
      },
      "football": {
        "value": { "iab": [484] }
      },
      "go kart": {
        "value": { "watson": { "display": false } }
      },
      "golf": {
        "value": { "iab": [512] }
      },
      "gymnastics": {
        "value": { "iab": [513] }
      },
      "handball": {
        "value": { "iab": [483] }
      },
      "hockey": {
        "value": { "iab": [483] }
      },
      "horse racing": {
        "value": { "iab": [497] }
      },
      "horses": {
        "value": { "iab": [496] }
      },
      "hunting and shooting": {
        "value": { "iab": [514] }
      },
      "martial arts": {
        "value": { "iab": [520] }
      },
      "motorcycling": {
        "value": { "iab": [519] }
      },
      "olympics": {
        "value": { "iab": [521] }
      },
      "paintball": {
        "value": { "iab": [501] }
      },
      "parachuting": {
        "value": { "iab": [498] }
      },
      "polo": {
        "value": { "iab": [496] }
      },
      "rodeo": {
        "value": { "iab": [525] }
      },
      "rowing": {
        "value": { "iab": [526] }
      },
      "rugby": {
        "value": { "iab": [527] }
      },
      "running and jogging": {
        "value": { "iab": [483] }
      },
      "sailing": {
        "value": { "iab": [530] }
      },
      "scuba diving": {
        "value": { "iab": [502] }
      },
      "skateboarding": {
        "value": { "iab": [503] }
      },
      "skating": {
        "value": { "iab": [516] }
      },
      "skiing": {
        "value": { "iab": [531] }
      },
      "snowboarding": {
        "value": { "iab": [504] }
      },
      "soccer": {
        "value": { "iab": [533] }
      },
      "softball": {
        "value": { "iab": [535] }
      },
      "sports news": {
        "value": { "iab": [483] }
      },
      "surfing and bodyboarding": {
        "value": { "iab": [505] }
      },
      "swimming": {
        "value": { "iab": [537] }
      },
      "table tennis and ping-pong": {
        "value": { "iab": [538] }
      },
      "tennis": {
        "value": { "iab": [539] }
      },
      "trekking": {
        "value": { "iab": [483] }
      },
      "volleyball": {
        "value": { "iab": [541] }
      },
      "wakeboarding": {
        "value": { "iab": [506] }
      },
      "walking": {
        "value": { "iab": [542] }
      },
      "water polo": {
        "value": { "iab": [543] }
      },
      "weightlifting": {
        "value": { "iab": [544] }
      },
      "windsurfing": {
        "value": { "iab": [498] }
      },
      "wrestling": {
        "value": { "iab": [483] }
      }
    },
    "value": {
      "iab": [483],
      "mantis": ["sports"]
    }
  },
  "style and fashion": {
    "subCategories": {
      "accessories": {
        "value": { "iab": [555] }
      },
      "beauty": {
        "value": { "iab": [552] }
      },
      "body art": {
        "value": { "iab": [574] }
      },
      "clothing": {
        "value": { "iab": [553] }
      },
      "fashion designers": {
        "value": { "iab": [576] }
      },
      "footwear": {
        "value": { "iab": [573, 589] }
      },
      "jewelry": {
        "value": { "iab": [565, 581] }
      },
      "luxury goods": {
        "value": { "iab": [552] }
      },
      "men's fashion": {
        "value": { "iab": [579] }
      },
      "swimwear": {
        "value": { "iab": [552] }
      },
      "underwear": {
        "value": { "iab": [588] }
      }
    },
    "value": {
      "iab": [552],
      "mantis": ["style_fashion"]
    }
  },
  "technology and computing": {
    "subCategories": {
      "computer certification": {
        "value": { "iab": [596] }
      },
      "computer crime": {
        "value": { "iab": [596] }
      },
      "computer reviews": {
        "value": { "iab": [596] }
      },
      "computer security": {
        "value": { "iab": [618] }
      },
      "consumer electronics": {
        "value": { "iab": [596] },
        "subCategories": {
          "game systems and consoles": {
            "value": { "iab": [681], "mantis": ["video_gaming"] }
          }
        }
      },
      "data centers": {
        "value": { "iab": [616] }
      },
      "electronic components": {
        "value": { "iab": [596] }
      },
      "enterprise technology": {
        "value": { "iab": [596] }
      },
      "hardware": {
        "value": { "iab": [596] }
      },
      "internet technology": {
        "value": { "iab": [596] }
      },
      "mp3 and midi": {
        "value": { "iab": [596] }
      },
      "networking": {
        "value": { "iab": [596] }
      },
      "operating systems": {
        "value": { "iab": [615] }
      },
      "programming languages": {
        "value": { "iab": [631] }
      },
      "software": {
        "value": { "iab": [602] }
      },
      "tech news": {
        "value": { "iab": [599] }
      },
      "technical support": {
        "value": { "iab": [599] }
      },
      "technological innovation": {
        "value": { "iab": [599] }
      }
    },
    "value": {
      "iab": [599],
      "mantis": ["tech_computing"]
    }
  },
  "travel": {
    "subCategories": {
      "budget travel": {
        "value": { "iab": [675] }
      },
      "business travel": {
        "value": { "iab": [676] }
      },
      "honeymoons and getaways": {
        "value": { "iab": [667] }
      },
      "hotels": {
        "value": { "iab": [668] }
      },
      "specialty travel": {
        "value": { "iab": [664] }
      },
      "tourist destinations": {
        "value": { "iab": [664] }
      },
      "tourist facilities": {
        "value": { "iab": [664] }
      },
      "transports": {
        "value": { "iab": [664] }
      },
      "travel agencies": {
        "value": { "iab": [664] }
      },
      "travel guides": {
        "value": { "iab": [664] }
      },
      "traveling with kids": {
        "value": { "iab": [664] }
      },
      "vacation rentals": {
        "value": { "iab": [664] }
      }
    },
    "value": {
      "iab": [664],
      "mantis": ["travel"]
    }
  }
}
